{
  "items": [
    {
      "external_urls": {
        "spotify": "https://open.spotify.com/artist/3WrFJ7ztbogyGnTHbHJFl2"
      },
      "followers": {
        "href": null,
        "total": 4941990
      },
      "genres": [
        "british invasion",
        "classic rock",
        "merseybeat",
        "protopunk",
        "psychedelic rock",
        "rock"
      ],
      "href": "https://api.spotify.com/v1/artists/3WrFJ7ztbogyGnTHbHJFl2",
      "id": "3WrFJ7ztbogyGnTHbHJFl2",
      "images": [
        {
          "height": 640,
          "url": "https://i.scdn.co/image/197cff807611777427c93258f0a1ccdf6b013b09",
          "width": 640
        },
        {
          "height": 320,
          "url": "https://i.scdn.co/image/2a80bb1f1da720b80ce29e7eff73a0b13d6a5c88",
          "width": 320
        },
        {
          "height": 160,
          "url": "https://i.scdn.co/image/b7d99ec41485c47e8cfc0401de182b948b5f9d49",
          "width": 160
        }
      ],
      "name": "The Beatles",
      "popularity": 89,
      "type": "artist",
      "uri": "spotify:artist:3WrFJ7ztbogyGnTHbHJFl2"
    },
    {
      "external_urls": {
        "spotify": "https://open.spotify.com/artist/6Q192DXotxtaysaqNPy5yR"
      },
      "followers": {
        "href": null,
        "total": 3082013
      },
      "genres": [
        "dance pop",
        "pop",
        "r&b"
      ],
      "href": "https://api.spotify.com/v1/artists/6Q192DXotxtaysaqNPy5yR",
      "id": "6Q192DXotxtaysaqNPy5yR",
      "images": [
        {
          "height": 503,
          "url": "https://i.scdn.co/image/fc4ca9662d2bd129df9d59177f227d2eea723c11",
          "width": 500
        },
        {
          "height": 201,
          "url": "https://i.scdn.co/image/ee204aa0d0e5f49f4a382420fdf0465fd56f9c09",
          "width": 200
        },
        {
          "height": 64,
          "url": "https://i.scdn.co/image/bc624fd9bb611108656f77b1724be013e1f7fc29",
          "width": 64
        }
      ],
      "name": "Amy Winehouse",
      "popularity": 81,
      "type": "artist",
      "uri": "spotify:artist:6Q192DXotxtaysaqNPy5yR"
    },
    {
      "external_urls": {
        "spotify": "https://open.spotify.com/artist/4IDoKaZIEacb3QncU8RQMp"
      },
      "followers": {
        "href": null,
        "total": 21523
      },
      "genres": [
        "britpop",
        "madchester"
      ],
      "href": "https://api.spotify.com/v1/artists/4IDoKaZIEacb3QncU8RQMp",
      "id": "4IDoKaZIEacb3QncU8RQMp",
      "images": [
        {
          "height": 589,
          "url": "https://i.scdn.co/image/38bb974dcf1093e28db0e8a5185b1c574d74d3ee",
          "width": 600
        },
        {
          "height": 196,
          "url": "https://i.scdn.co/image/4e64c6484dc3aea542565173e3d49af019f0a2dc",
          "width": 200
        },
        {
          "height": 63,
          "url": "https://i.scdn.co/image/9cc87b3decfaa9d8e05805c8879e2977f8b00334",
          "width": 64
        }
      ],
      "name": "I Am Kloot",
      "popularity": 43,
      "type": "artist",
      "uri": "spotify:artist:4IDoKaZIEacb3QncU8RQMp"
    },
    {
      "external_urls": {
        "spotify": "https://open.spotify.com/artist/06nsZ3qSOYZ2hPVIMcr1IN"
      },
      "followers": {
        "href": null,
        "total": 141017
      },
      "genres": [
        "blues",
        "blues-rock",
        "chicago blues",
        "classic rock",
        "country blues",
        "electric blues",
        "folk",
        "folk rock",
        "jazz blues",
        "mellow gold",
        "modern blues",
        "psychedelic rock",
        "rock",
        "roots rock",
        "singer-songwriter",
        "soft rock",
        "soul blues",
        "southern rock",
        "texas blues",
        "traditional blues",
        "traditional folk"
      ],
      "href": "https://api.spotify.com/v1/artists/06nsZ3qSOYZ2hPVIMcr1IN",
      "id": "06nsZ3qSOYZ2hPVIMcr1IN",
      "images": [
        {
          "height": 1500,
          "url": "https://i.scdn.co/image/d27983fe2270286990c421007f377739eb0db320",
          "width": 1000
        },
        {
          "height": 960,
          "url": "https://i.scdn.co/image/ee54351269b4dab5e4594323e7423fa4728ef941",
          "width": 640
        },
        {
          "height": 300,
          "url": "https://i.scdn.co/image/bb44c3051f1f0acbc809947f66744e0d04b748a3",
          "width": 200
        },
        {
          "height": 96,
          "url": "https://i.scdn.co/image/c4b71389a16d07e8b6a8f58de0ddb228cbf8ea12",
          "width": 64
        }
      ],
      "name": "J.J. Cale",
      "popularity": 64,
      "type": "artist",
      "uri": "spotify:artist:06nsZ3qSOYZ2hPVIMcr1IN"
    },
    {
      "external_urls": {
        "spotify": "https://open.spotify.com/artist/7t51dSX8ZkKC7VoKRd0lME"
      },
      "followers": {
        "href": null,
        "total": 112769
      },
      "genres": [
        "israeli rock"
      ],
      "href": "https://api.spotify.com/v1/artists/7t51dSX8ZkKC7VoKRd0lME",
      "id": "7t51dSX8ZkKC7VoKRd0lME",
      "images": [
        {
          "height": 667,
          "url": "https://i.scdn.co/image/fc32d7dd987fcbf8c03e2b02410f95ed92a6e369",
          "width": 1000
        },
        {
          "height": 427,
          "url": "https://i.scdn.co/image/d987fb1d4f2731c2e9e0248bf1f806f17067c35c",
          "width": 640
        },
        {
          "height": 133,
          "url": "https://i.scdn.co/image/84d6bbff01929d2955bfcce8ad414dd29c5d1260",
          "width": 200
        },
        {
          "height": 43,
          "url": "https://i.scdn.co/image/c3b3bb3afa4247bfded24b7978f92ab066bf6493",
          "width": 64
        }
      ],
      "name": "Asaf Avidan",
      "popularity": 58,
      "type": "artist",
      "uri": "spotify:artist:7t51dSX8ZkKC7VoKRd0lME"
    },
    {
      "external_urls": {
        "spotify": "https://open.spotify.com/artist/1OJyJ7UqhgfO6M0W5ez2H3"
      },
      "followers": {
        "href": null,
        "total": 192
      },
      "genres": [],
      "href": "https://api.spotify.com/v1/artists/1OJyJ7UqhgfO6M0W5ez2H3",
      "id": "1OJyJ7UqhgfO6M0W5ez2H3",
      "images": [
        {
          "height": 640,
          "url": "https://i.scdn.co/image/ca5c8693e74a23ee17dd62cdf6a2000651d7f426",
          "width": 640
        },
        {
          "height": 320,
          "url": "https://i.scdn.co/image/8010f5b6adc93f1779228503a00977c925e8d38b",
          "width": 320
        },
        {
          "height": 160,
          "url": "https://i.scdn.co/image/2129620ee011cfb4a886129f55e602d2304a7572",
          "width": 160
        }
      ],
      "name": "Moon Moon Moon",
      "popularity": 15,
      "type": "artist",
      "uri": "spotify:artist:1OJyJ7UqhgfO6M0W5ez2H3"
    },
    {
      "external_urls": {
        "spotify": "https://open.spotify.com/artist/7nwUJBm0HE4ZxD3f5cy5ok"
      },
      "followers": {
        "href": null,
        "total": 843814
      },
      "genres": [
        "adult standards",
        "christmas",
        "classic funk rock",
        "disco",
        "funk",
        "jazz blues",
        "motown",
        "soul",
        "soul blues",
        "soul christmas",
        "southern soul",
        "vocal jazz"
      ],
      "href": "https://api.spotify.com/v1/artists/7nwUJBm0HE4ZxD3f5cy5ok",
      "id": "7nwUJBm0HE4ZxD3f5cy5ok",
      "images": [
        {
          "height": 1000,
          "url": "https://i.scdn.co/image/c5662abce23781f86275ea6540c6e299845f8d82",
          "width": 1000
        },
        {
          "height": 640,
          "url": "https://i.scdn.co/image/ee047138122e6e4092b9fbc8e7ff499edb124873",
          "width": 640
        },
        {
          "height": 200,
          "url": "https://i.scdn.co/image/a7bb8e17ab2e669b545482b7cf6dc63e4320f91c",
          "width": 200
        },
        {
          "height": 64,
          "url": "https://i.scdn.co/image/b16c5e04333d96852aed4a4122032c8488e4f93d",
          "width": 64
        }
      ],
      "name": "Aretha Franklin",
      "popularity": 75,
      "type": "artist",
      "uri": "spotify:artist:7nwUJBm0HE4ZxD3f5cy5ok"
    },
    {
      "external_urls": {
        "spotify": "https://open.spotify.com/artist/4phGZZrJZRo4ElhRtViYdl"
      },
      "followers": {
        "href": null,
        "total": 2020569
      },
      "genres": [
        "acoustic pop",
        "folk-pop",
        "neo mellow",
        "pop",
        "pop christmas",
        "pop rock",
        "singer-songwriter",
        "viral pop"
      ],
      "href": "https://api.spotify.com/v1/artists/4phGZZrJZRo4ElhRtViYdl",
      "id": "4phGZZrJZRo4ElhRtViYdl",
      "images": [
        {
          "height": 640,
          "url": "https://i.scdn.co/image/05dc7e7d87ef98c8ebdb76eada20b5f3e1e31898",
          "width": 640
        },
        {
          "height": 320,
          "url": "https://i.scdn.co/image/45d486ec159d2526417d6e30576831bc0cbe7bc7",
          "width": 320
        },
        {
          "height": 160,
          "url": "https://i.scdn.co/image/a1c4828f8310ddfcb8bf785f20c3392e2d13e842",
          "width": 160
        }
      ],
      "name": "Jason Mraz",
      "popularity": 81,
      "type": "artist",
      "uri": "spotify:artist:4phGZZrJZRo4ElhRtViYdl"
    },
    {
      "external_urls": {
        "spotify": "https://open.spotify.com/artist/5fMNki1cAszN37EYRTVdOc"
      },
      "followers": {
        "href": null,
        "total": 2446
      },
      "genres": [
        "classic russian rock",
        "russian rock",
        "ukrainian rock"
      ],
      "href": "https://api.spotify.com/v1/artists/5fMNki1cAszN37EYRTVdOc",
      "id": "5fMNki1cAszN37EYRTVdOc",
      "images": [
        {
          "height": 640,
          "url": "https://i.scdn.co/image/01dd25fc6a0596ac23b2742090e55391a9460697",
          "width": 640
        },
        {
          "height": 300,
          "url": "https://i.scdn.co/image/bd35639b40359ce251a5b9e00c7bc31bc96ca642",
          "width": 300
        },
        {
          "height": 64,
          "url": "https://i.scdn.co/image/5015c44a3604be3bb267054d44fda0ccef1067e6",
          "width": 64
        }
      ],
      "name": "Odyn V Kanoe",
      "popularity": 35,
      "type": "artist",
      "uri": "spotify:artist:5fMNki1cAszN37EYRTVdOc"
    },
    {
      "external_urls": {
        "spotify": "https://open.spotify.com/artist/22WZ7M8sxp5THdruNY3gXt"
      },
      "followers": {
        "href": null,
        "total": 1948449
      },
      "genres": [
        "album rock",
        "blues-rock",
        "classic rock",
        "folk rock",
        "hard rock",
        "piano rock",
        "psychedelic rock",
        "rock"
      ],
      "href": "https://api.spotify.com/v1/artists/22WZ7M8sxp5THdruNY3gXt",
      "id": "22WZ7M8sxp5THdruNY3gXt",
      "images": [
        {
          "height": 1253,
          "url": "https://i.scdn.co/image/b8c3d75acf2d800defb05b8515445e6d064c97d5",
          "width": 919
        },
        {
          "height": 873,
          "url": "https://i.scdn.co/image/fdca4a508d930f9add0c73c33883a691cc3d8eaa",
          "width": 640
        },
        {
          "height": 273,
          "url": "https://i.scdn.co/image/9c97e2cbfe6d056026c2904a3f0e2c286f4b4061",
          "width": 200
        },
        {
          "height": 87,
          "url": "https://i.scdn.co/image/3da16e239906bb95e5c4858596b695deebf87260",
          "width": 64
        }
      ],
      "name": "The Doors",
      "popularity": 78,
      "type": "artist",
      "uri": "spotify:artist:22WZ7M8sxp5THdruNY3gXt"
    },
    {
      "external_urls": {
        "spotify": "https://open.spotify.com/artist/0oSGxfWSnnOXhD2fKuz2Gy"
      },
      "followers": {
        "href": null,
        "total": 2120041
      },
      "genres": [
        "album rock",
        "art rock",
        "classic funk rock",
        "classic rock",
        "dance rock",
        "glam rock",
        "mellow gold",
        "new wave",
        "permanent wave",
        "pop christmas",
        "protopunk",
        "rock",
        "soft rock"
      ],
      "href": "https://api.spotify.com/v1/artists/0oSGxfWSnnOXhD2fKuz2Gy",
      "id": "0oSGxfWSnnOXhD2fKuz2Gy",
      "images": [
        {
          "height": 1000,
          "url": "https://i.scdn.co/image/c87011084fdcf2618b18828c68f07b4d48d6fd08",
          "width": 1000
        },
        {
          "height": 640,
          "url": "https://i.scdn.co/image/dfe894b78b2c5fcbf8a0d2f8049bf85a17ad2fca",
          "width": 640
        },
        {
          "height": 200,
          "url": "https://i.scdn.co/image/7e839371de13c93ec17553c45755f71e065b6b2a",
          "width": 200
        },
        {
          "height": 64,
          "url": "https://i.scdn.co/image/635a4706b6c1050a4aaf348c28f78ac4868a698f",
          "width": 64
        }
      ],
      "name": "David Bowie",
      "popularity": 82,
      "type": "artist",
      "uri": "spotify:artist:0oSGxfWSnnOXhD2fKuz2Gy"
    },
    {
      "external_urls": {
        "spotify": "https://open.spotify.com/artist/7gf6rgjXuZjsW7LIuuPOZu"
      },
      "followers": {
        "href": null,
        "total": 593
      },
      "genres": [],
      "href": "https://api.spotify.com/v1/artists/7gf6rgjXuZjsW7LIuuPOZu",
      "id": "7gf6rgjXuZjsW7LIuuPOZu",
      "images": [
        {
          "height": 640,
          "url": "https://i.scdn.co/image/d4b49aa33a8642f97264612612ed06b6cb7b0be0",
          "width": 640
        },
        {
          "height": 320,
          "url": "https://i.scdn.co/image/4cdf57752e6224c898afef29d36d4d9c68d2b4db",
          "width": 320
        },
        {
          "height": 160,
          "url": "https://i.scdn.co/image/edbdb486eedaa91629b11af7a1ffae670a7579a7",
          "width": 160
        }
      ],
      "name": "The Howlin'",
      "popularity": 37,
      "type": "artist",
      "uri": "spotify:artist:7gf6rgjXuZjsW7LIuuPOZu"
    },
    {
      "external_urls": {
        "spotify": "https://open.spotify.com/artist/3PhoLpVuITZKcymswpck5b"
      },
      "followers": {
        "href": null,
        "total": 1188253
      },
      "genres": [
        "album rock",
        "classic rock",
        "folk christmas",
        "glam rock",
        "mellow gold",
        "piano rock",
        "rock",
        "singer-songwriter",
        "soft rock"
      ],
      "href": "https://api.spotify.com/v1/artists/3PhoLpVuITZKcymswpck5b",
      "id": "3PhoLpVuITZKcymswpck5b",
      "images": [
        {
          "height": 640,
          "url": "https://i.scdn.co/image/8b9b906a508209d627e3b185ab540520ea8c54c6",
          "width": 640
        },
        {
          "height": 320,
          "url": "https://i.scdn.co/image/786a790c88c52b53560eb80ceba75687e20fed39",
          "width": 320
        },
        {
          "height": 160,
          "url": "https://i.scdn.co/image/aa5f7298d2b38b0d5da7dc9a50bcb69a1f72cc03",
          "width": 160
        }
      ],
      "name": "Elton John",
      "popularity": 82,
      "type": "artist",
      "uri": "spotify:artist:3PhoLpVuITZKcymswpck5b"
    },
    {
      "external_urls": {
        "spotify": "https://open.spotify.com/artist/6tq9JKuE6vPDbQw5EiXLwn"
      },
      "followers": {
        "href": null,
        "total": 4668
      },
      "genres": [
        "gypsy jazz"
      ],
      "href": "https://api.spotify.com/v1/artists/6tq9JKuE6vPDbQw5EiXLwn",
      "id": "6tq9JKuE6vPDbQw5EiXLwn",
      "images": [
        {
          "height": 600,
          "url": "https://i.scdn.co/image/d226ebd20cf24a7f401a3b5c4dfec99887264d6f",
          "width": 600
        },
        {
          "height": 300,
          "url": "https://i.scdn.co/image/2efc2df322565d567c461b7366a07f170efe7254",
          "width": 300
        },
        {
          "height": 64,
          "url": "https://i.scdn.co/image/95966a6a084aa679d2ee7396b9c31c2cac64ef17",
          "width": 64
        }
      ],
      "name": "Jimmy Rosenberg",
      "popularity": 40,
      "type": "artist",
      "uri": "spotify:artist:6tq9JKuE6vPDbQw5EiXLwn"
    },
    {
      "external_urls": {
        "spotify": "https://open.spotify.com/artist/0epOFNiUfyON9EYx7Tpr6V"
      },
      "followers": {
        "href": null,
        "total": 1755149
      },
      "genres": [
        "alternative rock",
        "blues-rock",
        "garage rock",
        "indie pop",
        "indie rock",
        "modern rock",
        "permanent wave",
        "rock"
      ],
      "href": "https://api.spotify.com/v1/artists/0epOFNiUfyON9EYx7Tpr6V",
      "id": "0epOFNiUfyON9EYx7Tpr6V",
      "images": [
        {
          "height": 640,
          "url": "https://i.scdn.co/image/83b70d344ea18f84f6fb654179e6d14ce886b716",
          "width": 640
        },
        {
          "height": 320,
          "url": "https://i.scdn.co/image/650a32fcd5fbb68d8db676d33b54b54b4828e255",
          "width": 320
        },
        {
          "height": 160,
          "url": "https://i.scdn.co/image/32978a5e54416c666c529ad4772ea266c6df2d1d",
          "width": 160
        }
      ],
      "name": "The Strokes",
      "popularity": 79,
      "type": "artist",
      "uri": "spotify:artist:0epOFNiUfyON9EYx7Tpr6V"
    },
    {
      "external_urls": {
        "spotify": "https://open.spotify.com/artist/1YZEoYFXx4AxVv13OiOPvZ"
      },
      "followers": {
        "href": null,
        "total": 316189
      },
      "genres": [
        "chamber pop",
        "folk christmas",
        "folk-pop",
        "freak folk",
        "indie christmas",
        "indie folk",
        "indie pop",
        "indietronica",
        "new weird america"
      ],
      "href": "https://api.spotify.com/v1/artists/1YZEoYFXx4AxVv13OiOPvZ",
      "id": "1YZEoYFXx4AxVv13OiOPvZ",
      "images": [
        {
          "height": 1000,
          "url": "https://i.scdn.co/image/cf278bb7dd152607e05d63513fe66028290cca90",
          "width": 1000
        },
        {
          "height": 640,
          "url": "https://i.scdn.co/image/7f49f7d44c85d46ec6b814f774d9a41feb140554",
          "width": 640
        },
        {
          "height": 200,
          "url": "https://i.scdn.co/image/c64b1551e554ba9f764c8e0291921db15997d5fb",
          "width": 200
        },
        {
          "height": 64,
          "url": "https://i.scdn.co/image/b18a111fb871dcabf3a68868fd72244c7d9cdf96",
          "width": 64
        }
      ],
      "name": "Devendra Banhart",
      "popularity": 66,
      "type": "artist",
      "uri": "spotify:artist:1YZEoYFXx4AxVv13OiOPvZ"
    },
    {
      "external_urls": {
        "spotify": "https://open.spotify.com/artist/3XqWi96WK0NxAhtHng8HSl"
      },
      "followers": {
        "href": null,
        "total": 177
      },
      "genres": [],
      "href": "https://api.spotify.com/v1/artists/3XqWi96WK0NxAhtHng8HSl",
      "id": "3XqWi96WK0NxAhtHng8HSl",
      "images": [
        {
          "height": 640,
          "url": "https://i.scdn.co/image/356a6de75562bdff41d6bb2daca124eb0ad3dc62",
          "width": 640
        },
        {
          "height": 320,
          "url": "https://i.scdn.co/image/01b0a97e2f3a1541052d318d6ebe09ba2bc92078",
          "width": 320
        },
        {
          "height": 160,
          "url": "https://i.scdn.co/image/8a2174072b9367915fca11da8f638cd24a2e5540",
          "width": 160
        }
      ],
      "name": "Nino Gvetadze",
      "popularity": 45,
      "type": "artist",
      "uri": "spotify:artist:3XqWi96WK0NxAhtHng8HSl"
    },
    {
      "external_urls": {
        "spotify": "https://open.spotify.com/artist/7jdFEYD2LTYjfwxOdlVjmc"
      },
      "followers": {
        "href": null,
        "total": 421882
      },
      "genres": [],
      "href": "https://api.spotify.com/v1/artists/7jdFEYD2LTYjfwxOdlVjmc",
      "id": "7jdFEYD2LTYjfwxOdlVjmc",
      "images": [
        {
          "height": 640,
          "url": "https://i.scdn.co/image/f0b1df5f5c775bff70b7f67325fafd07d212ee53",
          "width": 640
        },
        {
          "height": 320,
          "url": "https://i.scdn.co/image/58dba98f04b4c2975ed271ff1df5e64a3333e0eb",
          "width": 320
        },
        {
          "height": 160,
          "url": "https://i.scdn.co/image/0d7bd4fd618e133e328f47f3f32ca2bd08aedc85",
          "width": 160
        }
      ],
      "name": "Kaleo",
      "popularity": 76,
      "type": "artist",
      "uri": "spotify:artist:7jdFEYD2LTYjfwxOdlVjmc"
    },
    {
      "external_urls": {
        "spotify": "https://open.spotify.com/artist/00tVTdpEhQQw1bqdu8RCx2"
      },
      "followers": {
        "href": null,
        "total": 306912
      },
      "genres": [
        "album rock",
        "alternative rock",
        "art rock",
        "blues-rock",
        "british blues",
        "classic funk rock",
        "classic rock",
        "electric blues",
        "hard rock",
        "mellow gold",
        "metal",
        "psychedelic rock",
        "rock",
        "soft rock",
        "southern rock"
      ],
      "href": "https://api.spotify.com/v1/artists/00tVTdpEhQQw1bqdu8RCx2",
      "id": "00tVTdpEhQQw1bqdu8RCx2",
      "images": [
        {
          "height": 651,
          "url": "https://i.scdn.co/image/cf6f3891fd97736a3ca5045971f433295a25bf90",
          "width": 999
        },
        {
          "height": 417,
          "url": "https://i.scdn.co/image/4b9a3fc879365e01f04a93a35bfd6e11728149b8",
          "width": 640
        },
        {
          "height": 130,
          "url": "https://i.scdn.co/image/c33714dd14f86815da7fef6ee037253d394bad96",
          "width": 200
        },
        {
          "height": 42,
          "url": "https://i.scdn.co/image/06a1b03cd12af6efe274b52a8be93bd551874360",
          "width": 64
        }
      ],
      "name": "Blue Öyster Cult",
      "popularity": 70,
      "type": "artist",
      "uri": "spotify:artist:00tVTdpEhQQw1bqdu8RCx2"
    },
    {
      "external_urls": {
        "spotify": "https://open.spotify.com/artist/2ApaG60P4r0yhBoDCGD8YG"
      },
      "followers": {
        "href": null,
        "total": 309972
      },
      "genres": [
        "alternative rock",
        "anti-folk",
        "chamber pop",
        "folk-pop",
        "freak folk",
        "indie folk",
        "indie pop",
        "indie rock",
        "lo-fi",
        "melancholia",
        "modern rock",
        "singer-songwriter",
        "slow core",
        "stomp and holler"
      ],
      "href": "https://api.spotify.com/v1/artists/2ApaG60P4r0yhBoDCGD8YG",
      "id": "2ApaG60P4r0yhBoDCGD8YG",
      "images": [
        {
          "height": 1000,
          "url": "https://i.scdn.co/image/146f91058135d0253baa52761a5a2f5116ba3356",
          "width": 1000
        },
        {
          "height": 640,
          "url": "https://i.scdn.co/image/0950e4858610748c8eb14929c72ba923aee94fc1",
          "width": 640
        },
        {
          "height": 200,
          "url": "https://i.scdn.co/image/4b7ceecc028bad2ce48fccbfb269703e5f273cd7",
          "width": 200
        },
        {
          "height": 64,
          "url": "https://i.scdn.co/image/03402d9b4d572c075658739ac37078cca608e43a",
          "width": 64
        }
      ],
      "name": "Elliott Smith",
      "popularity": 67,
      "type": "artist",
      "uri": "spotify:artist:2ApaG60P4r0yhBoDCGD8YG"
    }
  ],
  "total": 76,
  "limit": 20,
  "offset": 5,
  "href": "https://api.spotify.com/v1/me/top/artists?limit=20&offset=5",
  "previous": null,
  "next": "https://api.spotify.com/v1/me/top/artists?limit=20&offset=25"
}